[
    {
        "id": "DIFF_REAU",
        "label": "Réussite automatique",
        "bonus": null
    },
    {
        "id": "DIFF_TRFA",
        "label": "Très facile",
        "bonus": 30
    },
    {
        "id": "DIFF_FACI",
        "label": "Facile",
        "bonus": 20
    },
    {
        "id": "DIFF_ASFA",
        "label": "Assez facile",
        "bonus": 10
    },
    {
        "id": "DIFF_MOYE",
        "label": "Moyenne",
        "bonus": 0
    },
    {
        "id": "DIFF_ASDI",
        "label": "Assez difficile",
        "bonus": -10
    },
    {
        "id": "DIFF_DIFF",
        "label": "Difficile",
        "bonus": -20
    },
    {
        "id": "DIFF_TRDI",
        "label": "Très difficile",
        "bonus": -30
    },
    {
        "id": "DIFF_CHMJ",
        "label": "Choix du Mj",
        "bonus": null
    }
]