[
    {
        "id": "QUAL_EXCE",
        "label": "Exceptionnelle",
        "modificator": -2,
        "priceModificator": 10
    },
    {
        "id": "QUAL_BONN",
        "label": "Bonne",
        "modificator": -1,
        "priceModificator": 3
    },
    {
        "id": "QUAL_MOYE",
        "label": "Moyenne",
        "modificator": 0,
        "priceModificator": 1
    },
    {
        "id": "QUAL_MEDI",
        "label": "Médiocre",
        "modificator": 1,
        "priceModificator": 0.5
    }
]